falldata_1000_01.rtp
falldata_1000_03.rtp
falldata_1250_11.rtp
falldata_1500_01.rtp
falldata_1500_03.rtp
falldata_1500_05.rtp
falldata_1500_07.rtp
falldata_1500_09.rtp
falldata_2000_01.rtp
falldata_2000_03.rtp
falldata_2000_05.rtp
falldata_2250_07.rtp
falldata_2250_09.rtp
falldata_2500_01.rtp
falldata_2500_03.rtp
falldata_3000_05.rtp
falldata_3000_09.rtp
falldata_3500_01.rtp
falldata_3500_03.rtp
falldata_3500_09.rtp
falldata_4000_01.rtp
falldata_4000_05.rtp
falldata_4000_09.rtp
falldata_4500_03.rtp
falldata_500_01.rtp
falldata_500_03.rtp
falldata_500_05.rtp
falldata_500_11.rtp
falldata_5500_03.rtp
falldata_7000_03.rtp
falldata_750_07.rtp
falldata_750_09.rtp
falldata_9000_03.rtp
