falldata_10000_03.rtp
falldata_1000_01.rtp
falldata_1000_05.rtp
falldata_1000_07.rtp
falldata_12000_03.rtp
falldata_1250_09.rtp
falldata_15000_03.rtp
falldata_1500_03.rtp
falldata_1500_09.rtp
falldata_18000_03.rtp
falldata_2000_01.rtp
falldata_2000_05.rtp
falldata_2000_07.rtp
falldata_2250_03.rtp
falldata_2500_01.rtp
falldata_250_11.rtp
falldata_3000_01.rtp
falldata_3000_03.rtp
falldata_3000_05.rtp
falldata_3000_07.rtp
falldata_4000_01.rtp
falldata_4000_05.rtp
falldata_4000_07.rtp
falldata_4500_03.rtp
falldata_500_09.rtp
falldata_500_11.rtp
falldata_7000_03.rtp
falldata_750_03.rtp
falldata_750_09.rtp

